aludec/aludec.vcd
$date
  Wed Aug 28 18:50:50 2013
$end
$version
  GHDL v0
$end
$timescale
  1 fs
$end
$var reg 6 ! funct_1[5:0] $end
$var reg 2 " aluop_1[1:0] $end
$var reg 3 # alucontrol_1[2:0] $end
$scope module prueba $end
$var reg 6 $ funct[5:0] $end
$var reg 2 % aluop[1:0] $end
$var reg 3 & alucontrol[2:0] $end
$upscope $end
$enddefinitions $end
#0
b000000 !
b00 "
b010 #
b000000 $
b00 %
b010 &
#5000000
b010101 !
b01 "
b110 #
b010101 $
b01 %
b110 &
#10000000
b100000 !
b10 "
b100000 $
b10 %
#15000000
b100100 !
b11 "
b000 #
b100100 $
b11 %
b000 &
#20000000
b100101 !
b001 #
b100101 $
b001 &
#25000000
b101010 !
b10 "
b101010 $
b10 %
#30000000
b100010 !
b01 "
b110 #
b100010 $
b01 %
b110 &
#35000000
b100101 !
b11 "
b001 #
b100101 $
b11 %
b001 &
#40000000
b100000 !
b10 "
b100000 $
b10 %
#45000000
b100010 !
b00 "
b010 #
b100010 $
b00 %
b010 &
#50000000
b000000 !
b01 "
b110 #
b000000 $
b01 %
b110 &
#55000000
b010101 !
b10 "
b010101 $
b10 %
#60000000
b100000 !
b11 "
b010 #
b100000 $
b11 %
b010 &
#65000000
b100100 !
b000 #
b100100 $
b000 &
#70000000
b100101 !
b10 "
b100101 $
b10 %
#75000000
b101010 !
b01 "
b110 #
b101010 $
b01 %
b110 &
#80000000
b100010 !
b11 "
b100010 $
b11 %
#85000000
b100101 !
b10 "
b100101 $
b10 %
#90000000
b100000 !
b00 "
b010 #
b100000 $
b00 %
b010 &
#95000000
b100010 !
b01 "
b110 #
b100010 $
b01 %
b110 &
#100000000
b000000 !
b10 "
b000000 $
b10 %
